\relax 
\citation{Damerau:1964}
\citation{Kernighan1990}
\citation{Li:2012}
\citation{Hladek2013}
\citation{Li:2012}
\citation{Duan2011}
\citation{Kernighan1990}
\citation{Brill2000}
\citation{Schliep2004}
\@writefile{toc}{\contentsline {section}{\numberline {1} Introduction}{1}}
\newlabel{sec:intro}{{1}{1}}
\@writefile{toc}{\contentsline {section}{\numberline {2} Background}{1}}
\newlabel{sec:background}{{2}{1}}
\citation{Viterbi:67}
\citation{Firasta2008}
\newlabel{eq:joint_pdf}{{1}{2}}
\newlabel{eq:max_joint_pdf}{{2}{2}}
\@writefile{lof}{\contentsline {figure}{\numberline {1}{\ignorespaces An example of a trellis diagram for a sequence of a length 4. The emissions are shown in purple, and the states in orange. Edges between states are given the value $A(x_k|x_{k-1}) + E(y_k | x_k)$. The optimal path between the start and end states is shown in red.}}{2}}
\newlabel{fig:trellis}{{1}{2}}
\@writefile{loa}{\contentsline {algorithm}{\numberline {1}{\ignorespaces Backwards-forwards Viterbi algorithm}}{2}}
\@writefile{toc}{\contentsline {section}{\numberline {3} Implementation details and methodology}{3}}
\@writefile{toc}{\contentsline {section}{\numberline {4} Base implementation and scalar improvements}{3}}
\@writefile{lol}{\contentsline {lstlisting}{\numberline {1}Base implementation of backwards iteration}{3}}
\@writefile{toc}{\contentsline {section}{\numberline {5} AVX instruction improvements}{4}}
\@writefile{lol}{\contentsline {lstlisting}{\numberline {2}AVX naive vectorization with horizontal min}{4}}
\@writefile{lol}{\contentsline {lstlisting}{\numberline {3}AVX vectorization using transposed memory layout}{5}}
\@writefile{toc}{\contentsline {section}{\numberline {6} Experimental Results \& Discussion}{5}}
\@writefile{lof}{\contentsline {figure}{\numberline {2}{\ignorespaces Performance plot of the \emph  {base} and unrolled scalar implementations.}}{5}}
\newlabel{scalarperf}{{2}{5}}
\@writefile{lof}{\contentsline {figure}{\numberline {3}{\ignorespaces Performance of the three generations of vectorized AVX implementations.}}{5}}
\newlabel{vectorperf}{{3}{5}}
\@writefile{lof}{\contentsline {figure}{\numberline {4}{\ignorespaces Speedup of all implementation with respect to the \emph  {base} implementation. The numbers correspond to the order of presentation of implementations. The \#0 corresponds to unrolling scalar implementation and further implementations correspond to generations of the vector code.}}{5}}
\newlabel{rt}{{4}{5}}
\citation{Schliep2004}
\bibstyle{IEEEbib}
\bibdata{bibl_conf}
\bibcite{Damerau:1964}{1}
\bibcite{Kernighan1990}{2}
\bibcite{Li:2012}{3}
\bibcite{Hladek2013}{4}
\bibcite{Duan2011}{5}
\bibcite{Brill2000}{6}
\bibcite{Schliep2004}{7}
\bibcite{Viterbi:67}{8}
\bibcite{Firasta2008}{9}
\@writefile{toc}{\contentsline {section}{\numberline {7} Conclusions}{6}}
\@writefile{toc}{\contentsline {section}{\numberline {8} References}{6}}
