N fink_1_rt fink_1_perf fink_11_rt fink_11_perf sam_aligned_rt sam_aligned_perf mojmir_1_rt mojmir_1_perf mojmir_3_rt mojmir_3_perf fink_9_rt fink_9_perf fink_1_opt_rt fink_1_opt_perf fink_11_opt_rt fink_11_opt_perf sam_aligned_opt_rt sam_aligned_opt_perf mojmir_1_opt_rt mojmir_1_opt_perf mojmir_3_opt_rt mojmir_3_opt_perf fink_9_opt_rt fink_9_opt_perf 
1000 4391399.40 0.47 4640133.30 0.44 903651.00 2.90 781544.10 5.20 719169.00 4.54 460014.60 4.99 4664674.20 0.44 4585704.00 0.45 893999.40 2.93 790261.80 5.14 732258.30 4.46 451325.40 5.08 
2000 8844246.60 0.46 9362469.00 0.44 1758419.40 2.98 1552975.50 5.23 1429938.60 4.56 887398.20 5.17 9365330.70 0.44 9199647.60 0.45 1754874.00 2.99 1571988.00 5.17 1437350.70 4.54 853307.10 5.38 
3000 13320696.90 0.46 13956461.70 0.44 2628919.20 2.99 2360956.80 5.16 2155438.20 4.54 1304532.90 5.28 14062325.40 0.44 13768913.10 0.45 2613311.70 3.01 2348061.60 5.19 2163603.30 4.53 1238676.00 5.56 
4000 17780852.10 0.46 18568102.80 0.44 3498385.20 3.00 3117427.80 5.21 2893149.60 4.51 1729958.40 5.31 18736272.90 0.44 18365694.90 0.45 3488608.80 3.01 3127473.90 5.20 2863185.30 4.56 1675676.40 5.48 
5000 22126595.40 0.46 23150517.90 0.44 4482721.80 2.93 3917526.00 5.19 3594854.70 4.54 2181333.60 5.26 22589472.90 0.45 22927004.10 0.45 4450525.50 2.95 3942734.70 5.15 3599492.70 4.53 2058485.70 5.58 
6000 26538815.40 0.46 27827638.80 0.44 5364277.50 2.93 4694829.00 5.19 4315277.70 4.54 2591275.50 5.32 27093446.70 0.45 27474153.00 0.45 5314040.70 2.96 4723685.10 5.16 4283422.20 4.57 2474592.30 5.57 
7000 30951465.60 0.46 32372873.10 0.44 6214103.70 2.96 5464780.20 5.21 5041782.90 4.53 3007138.80 5.34 31586411.70 0.45 32156372.40 0.45 6185781.00 2.97 5495244.60 5.18 5227859.10 4.37 2885982.60 5.57 
8000 35444066.70 0.46 37023622.50 0.44 7097270.10 2.96 6257836.80 5.20 5754506.70 4.54 3422446.80 5.37 36155055.00 0.45 36881154.30 0.44 7102300.20 2.96 6270873.00 5.18 5740245.90 4.55 3275285.70 5.61 
9000 39887111.70 0.46 41632610.70 0.44 16935545.10 1.39 7049556.60 5.19 6470011.50 4.54 3863742.60 5.35 40665182.10 0.45 41308934.40 0.45 7937926.50 2.97 7039652.70 5.20 6443605.20 4.56 3696903.60 5.59 
10000 44462245.80 0.46 46333488.30 0.44 8853879.00 2.96 7811031.90 5.20 7181438.70 4.54 4293812.10 5.35 45232303.20 0.45 46101078.90 0.44 8862775.80 2.96 7847920.50 5.18 7169362.80 4.55 4079128.20 5.63 
10000 44331583.50 0.46 46474105.50 0.44 8877780.00 2.96 7831441.50 5.19 7177384.20 4.55 4280415.60 5.36 45216231.60 0.45 46096490.10 0.44 8859753.60 2.96 7894451.70 5.15 7187468.70 4.54 4121147.40 5.57 
20000 89117691.60 0.46 93681706.20 0.44 17695845.00 2.97 16040582.70 5.07 14703010.50 4.44 8488743.90 5.41 90581423.40 0.45 92603644.50 0.44 17578576.80 2.99 16048111.50 5.06 14702037.90 4.44 8132223.00 5.65 
30000 133971884.40 0.46 140354235.90 0.44 26357799.30 2.99 23914493.40 5.10 22094502.60 4.43 12714967.80 5.42 135985712.70 0.45 138841191.90 0.44 26330884.50 2.99 24066692.70 5.07 22135040.10 4.42 12192485.10 5.65 
40000 178802018.70 0.46 187938701.40 0.44 35095765.80 2.99 32061560.40 5.07 29415954.60 4.44 17042430.90 5.39 181391984.10 0.45 185644860.30 0.44 35112661.80 2.99 32441978.70 5.01 29316081.90 4.45 16220959.50 5.66 
50000 223885932.30 0.46 234533095.20 0.44 44071005.00 2.98 40101262.50 5.07 37491233.70 4.35 21399586.80 5.36 227231457.00 0.45 232395941.40 0.44 43851664.50 2.99 40408041.60 5.03 36984267.90 4.41 20444313.00 5.62 
60000 272966542.20 0.45 281778470.70 0.44 52705612.50 2.99 48543391.80 5.02 45164513.70 4.34 25691305.50 5.36 272579001.60 0.45 278691071.70 0.44 52638079.20 2.99 48551178.90 5.02 44960465.70 4.36 24735728.70 5.57 
70000 314910524.10 0.46 329100408.60 0.44 61610863.50 2.98 56364111.60 5.05 53142138.60 4.30 30158406.90 5.33 328088270.70 0.44 325803873.00 0.44 61415191.80 2.99 56559047.70 5.03 53535348.30 4.27 28984403.40 5.54 
80000 360057649.50 0.46 378522468.00 0.43 70390860.00 2.98 65792094.00 4.94 59808891.00 4.37 34576454.10 5.31 363924281.40 0.45 372201229.20 0.44 70163499.60 2.99 65401449.00 4.97 59959959.90 4.35 33308994.90 5.51 
90000 406554407.10 0.45 431294725.80 0.43 79120439.10 2.98 73200805.80 5.00 67778752.20 4.33 38702797.50 5.34 409731541.50 0.45 419165644.50 0.44 78997200.00 2.99 73256813.40 4.99 68488500.30 4.29 37338218.10 5.53 
100000 453045814.50 0.45 470644716.90 0.44 88122177.00 2.98 81769377.00 4.97 75598717.50 4.32 42844725.00 5.36 454486519.50 0.45 465078934.20 0.44 87793473.00 2.99 82291894.50 4.94 75424889.40 4.33 42248437.50 5.43 
100000 451408897.20 0.45 473018735.40 0.43 87757064.10 2.99 82456523.40 4.93 74938920.00 4.36 43393473.90 5.29 455311766.70 0.45 465392013.90 0.44 88747927.20 2.96 82254771.90 4.94 76169552.10 4.29 41914772.10 5.48 
200000 877441636.50 0.47 943789800.90 0.43 176007896.70 2.98 166074308.40 4.89 156352579.50 4.18 90209430.60 5.09 910490786.70 0.45 931445944.50 0.44 175767949.80 2.99 167324496.90 4.86 154009504.80 4.24 90039971.70 5.10 
300000 1354226661.00 0.45 1448893032.30 0.42 307123589.70 2.56 288909832.20 4.22 265731901.20 3.68 184358436.90 3.74 1413024969.60 0.43 1433037126.00 0.43 309930806.40 2.54 290070032.40 4.20 267790645.80 3.66 181383238.80 3.80 
400000 1809925511.70 0.45 1934911656.60 0.42 413754611.10 2.54 385925756.40 4.21 359764815.00 3.63 251861146.20 3.65 1885902460.20 0.43 1913407668.00 0.43 410599517.70 2.56 387277853.40 4.20 355167188.40 3.68 243229824.60 3.78 
500000 2258591905.80 0.45 2417071946.70 0.42 515172630.30 2.55 485324500.20 4.19 443814045.00 3.68 309682900.20 3.71 2357404569.30 0.43 2391164891.40 0.43 514839212.70 2.55 479229108.30 4.24 447438081.00 3.65 304652917.20 3.77 
600000 2708253676.50 0.45 2897093553.90 0.42 617828856.30 2.55 582448103.70 4.19 532035914.10 3.68 374251940.40 3.68 2827763963.70 0.43 2868532875.30 0.43 616669024.50 2.55 577531393.80 4.22 535792580.10 3.66 363874780.20 3.79 
700000 3155332624.80 0.45 3381745768.50 0.42 722885655.00 2.54 678048009.00 4.20 623069964.60 3.67 432802883.10 3.71 3296802641.70 0.43 3345599635.20 0.43 718594150.80 2.56 673764448.20 4.22 625633630.20 3.65 423073556.10 3.80 
800000 3609249796.20 0.45 3860108507.10 0.42 824672071.20 2.55 774455541.00 4.20 711173922.60 3.67 496724424.00 3.70 3770354801.40 0.43 3824131265.70 0.43 821873623.20 2.55 773331799.80 4.20 713444874.60 3.66 478995820.80 3.83 
900000 4052434314.00 0.45 4344488051.10 0.42 930110058.90 2.54 863449389.60 4.24 801345470.40 3.67 561701319.00 3.68 4253577884.10 0.43 4304556750.00 0.43 922888642.20 2.56 869377507.50 4.21 803645330.40 3.66 542297346.30 3.81 
1000000 4505247237.30 0.45 4835773446.00 0.42 1027065429.60 2.55 962224707.00 4.22 892939860.30 3.66 622011285.00 3.69 4717288562.10 0.43 4784660885.70 0.43 1027794960.00 2.55 972390366.00 4.18 899882747.40 3.63 597726793.80 3.84 
