N fink_1_rt fink_1_perf fink_11_rt fink_11_perf sam_aligned_rt sam_aligned_perf mojmir_1_rt mojmir_1_perf mojmir_3_rt mojmir_3_perf fink_9_rt fink_9_perf fink_1_opt_rt fink_1_opt_perf fink_11_opt_rt fink_11_opt_perf sam_aligned_opt_rt sam_aligned_opt_perf mojmir_1_opt_rt mojmir_1_opt_perf mojmir_3_opt_rt mojmir_3_opt_perf fink_9_opt_rt fink_9_opt_perf 
1000 4502031.90 0.45 4578440.10 0.45 916974.60 2.86 796111.20 5.10 705756.00 4.62 453645.00 5.06 4674376.80 0.44 4671411.60 0.44 939390.30 2.79 790038.60 5.14 694865.10 4.70 421811.10 5.44 
2000 8942581.20 0.46 9214782.60 0.44 1802309.10 2.91 1575902.10 5.16 1405064.10 4.65 874028.10 5.25 8874644.10 0.46 9384880.50 0.44 1818416.70 2.88 1578990.00 5.15 1408053.30 4.64 868463.40 5.28 
3000 13858482.60 0.44 13768273.50 0.45 2644140.30 2.98 2368504.50 5.15 2133757.50 4.59 1295202.60 5.32 13351047.00 0.46 14060587.80 0.44 2689492.50 2.93 2362773.90 5.16 2119060.20 4.62 1235175.00 5.57 
4000 17565177.90 0.47 18368061.90 0.45 3526477.50 2.98 3142980.00 5.17 2826070.50 4.62 1709151.00 5.37 17745040.20 0.46 18681043.50 0.44 3570575.40 2.94 3162553.20 5.14 2818406.10 4.63 1628413.20 5.64 
5000 20428590.30 0.50 22851932.40 0.45 4508106.90 2.91 3952662.60 5.14 3545943.90 4.60 2158165.80 5.32 21372488.40 0.48 23349726.60 0.44 4570032.00 2.87 3971409.60 5.12 3519301.80 4.64 2065203.30 5.56 
6000 25565931.90 0.48 27445878.90 0.45 5386329.30 2.92 4732493.10 5.15 4264252.20 4.59 2577939.60 5.34 25606330.80 0.48 27995244.00 0.44 5452571.40 2.89 4747195.20 5.14 4233801.00 4.63 2446209.00 5.63 
7000 30179327.40 0.47 32014872.90 0.45 6206312.70 2.96 5503863.00 5.17 4949363.40 4.62 2995046.40 5.37 29892517.50 0.48 32846417.70 0.44 6360111.90 2.89 5536542.60 5.14 4941273.00 4.62 2870356.20 5.60 
8000 33804512.40 0.48 36665595.30 0.45 7136913.00 2.94 6322754.70 5.14 5644199.10 4.63 3414447.30 5.38 34184226.30 0.48 37834947.30 0.43 7182696.00 2.92 6292739.10 5.17 5635275.30 4.63 3271879.20 5.61 
9000 37548483.00 0.49 41290857.60 0.45 8036161.80 2.94 7100373.30 5.15 6372940.20 4.61 3826952.10 5.40 38626683.00 0.48 42222520.80 0.44 8141176.80 2.90 7093144.50 5.16 8087724.00 3.63 3670129.80 5.63 
10000 41422744.50 0.49 45888107.70 0.45 8868677.70 2.96 7869345.30 5.16 7109085.30 4.59 4276015.50 5.37 42692070.60 0.48 46793048.70 0.44 9010025.10 2.91 7864612.20 5.17 7045307.70 4.63 4052379.30 5.67 
10000 43046543.70 0.48 45834105.60 0.45 8914333.80 2.94 7880928.30 5.16 7062574.80 4.62 4263364.20 5.38 42718389.60 0.48 46771632.00 0.44 9067406.10 2.89 7891431.30 5.15 7057405.80 4.62 4124234.40 5.57 
20000 84139618.80 0.49 92531769.90 0.44 17762208.30 2.95 16404862.20 4.95 14608595.10 4.47 8591005.50 5.34 85772076.90 0.48 94651212.90 0.43 17852047.80 2.94 16278761.70 4.99 14557621.20 4.48 8102295.90 5.67 
30000 125775759.60 0.49 139584573.00 0.44 26526593.40 2.97 24239765.70 5.03 21961704.60 4.46 12778498.20 5.39 128927933.40 0.48 142136506.50 0.43 26708559.30 2.95 24600139.20 4.96 21794178.60 4.49 12170558.40 5.66 
40000 166400754.00 0.49 185482923.30 0.44 35375766.60 2.97 32699079.60 4.97 29269323.30 4.46 17208676.50 5.34 172078994.70 0.48 189318174.30 0.43 35717576.10 2.94 32523165.00 5.00 29131643.40 4.48 16428281.40 5.59 
50000 204877620.90 0.50 232621914.00 0.44 44158554.90 2.97 40496491.50 5.02 36602085.00 4.46 21100966.50 5.44 214733676.30 0.48 236636010.90 0.43 44666007.60 2.94 40982159.70 4.96 36990744.90 4.41 20254581.30 5.67 
60000 254479547.40 0.48 280114308.90 0.44 53066843.70 2.97 49147508.70 4.96 43883035.20 4.46 25731897.60 5.35 257756979.00 0.48 285041825.40 0.43 53457024.00 2.95 49354441.20 4.94 43928821.50 4.46 24473084.10 5.63 
70000 286039967.70 0.50 325017095.40 0.44 61996998.90 2.96 57875423.40 4.92 51295458.00 4.45 30091033.50 5.34 301002794.70 0.48 332279612.70 0.43 62238032.10 2.95 57729914.70 4.93 52623282.30 4.34 29510546.70 5.45 
80000 331615048.80 0.49 371817267.30 0.44 70618985.40 2.97 66832861.80 4.86 59674212.60 4.38 35742856.50 5.14 345247367.10 0.47 379841253.00 0.43 71178298.20 2.95 66110033.10 4.92 58549169.10 4.46 33490446.30 5.48 
90000 376723727.10 0.49 418417134.90 0.44 79516467.30 2.97 75415013.70 4.85 66675925.80 4.41 41857216.20 4.94 387699483.90 0.48 426807087.60 0.43 80147287.20 2.95 74543086.80 4.91 66286038.00 4.43 37126419.30 5.57 
100000 411187082.70 0.50 468825695.10 0.44 88251703.20 2.97 82988315.40 4.90 75056686.20 4.35 46039398.90 4.99 430799263.80 0.48 474027065.70 0.43 88820720.10 2.95 83353442.70 4.88 74581460.40 4.38 42143808.30 5.45 
100000 412996643.70 0.50 464013766.20 0.44 88379250.00 2.97 83242688.40 4.88 74631988.20 4.37 46878828.30 4.90 430797791.40 0.48 474299073.00 0.43 89012873.70 2.95 82383265.50 4.93 74274888.30 4.39 41695008.30 5.51 
200000 783976428.60 0.52 934145000.40 0.44 176537815.20 2.97 167441831.40 4.85 150707130.00 4.33 92906127.30 4.94 864040437.30 0.47 950393728.80 0.43 177667957.20 2.95 169697118.60 4.79 150507382.80 4.34 86480850.90 5.31 
300000 1211602171.50 0.51 1440665264.10 0.43 311350933.50 2.53 290181870.60 4.20 262895051.70 3.72 191090600.10 3.60 1341277896.60 0.46 1460767952.10 0.42 312320920.80 2.52 287482626.30 4.24 261957057.60 3.74 178545820.50 3.86 
400000 1619312622.00 0.51 1909935776.10 0.43 412500625.80 2.54 383622764.40 4.24 350718606.00 3.72 251919232.80 3.65 1786522342.50 0.46 1947164229.90 0.42 415392663.30 2.53 386397758.40 4.21 347809707.90 3.75 240469883.40 3.82 
500000 2023322326.50 0.51 2391002392.20 0.43 513511458.90 2.55 479679681.00 4.24 435190225.50 3.75 315511206.90 3.64 2234304943.20 0.46 2432746904.40 0.42 518175149.40 2.53 479844064.20 4.23 436061967.00 3.74 303538992.00 3.78 
600000 2429755153.80 0.51 2864767794.60 0.43 618858638.70 2.54 578432555.40 4.22 530500360.50 3.69 375216959.40 3.67 2680831889.10 0.46 2922926926.20 0.42 621794004.30 2.53 572396145.60 4.26 524141784.90 3.74 360766822.80 3.82 
700000 2833275270.30 0.51 3339800639.40 0.43 729012009.00 2.52 674304834.00 4.22 614752184.40 3.72 434968275.90 3.69 3126481013.40 0.46 3408569779.20 0.42 724666353.90 2.53 671683458.60 4.24 611230269.30 3.74 423209872.80 3.80 
800000 3231892673.10 0.51 3817340256.30 0.43 823776483.00 2.55 767417437.50 4.24 698878147.20 3.74 499083615.00 3.68 3574144429.20 0.46 3898701237.90 0.42 830535875.10 2.53 768938453.40 4.23 698018238.30 3.74 482888227.20 3.80 
900000 3627467180.10 0.51 4294421736.60 0.43 919824175.80 2.57 863624522.10 4.24 784209275.10 3.75 561012877.20 3.68 4021528022.70 0.46 4382877673.50 0.42 930863785.80 2.54 865269067.50 4.23 784588867.20 3.74 550327771.80 3.75 
1000000 4036300997.70 0.51 4769091475.20 0.43 1027292292.90 2.55 970767393.30 4.19 876816794.40 3.72 623477140.50 3.68 4469023434.00 0.46 4869834496.20 0.42 1033034547.30 2.54 959006638.20 4.24 877642650.00 3.72 606379171.80 3.79 
