   1.5722638e-03   2.4570262e-02   3.9825061e-02   5.3407364e-02   1.1589059e-02   3.4092521e-02   1.6169146e-02   4.0061901e-02   6.2308566e-02   1.6055968e-02   3.4513506e-02   4.5364683e-02   7.9014060e-02   3.7911855e-02   2.4917429e-02   4.1229090e-02   6.6150592e-02   6.3270579e-02   2.6575651e-02   3.7276035e-02   2.3956283e-02   1.5049774e-02   8.0116067e-03   7.5654462e-02   2.9726494e-02   4.1487809e-02   5.0237975e-02   0.0000000e+00   0.0000000e+00   0.0000000e+00   0.0000000e+00   0.0000000e+00
   2.5115934e-02   1.6957190e-02   6.0208881e-02   4.1230093e-02   4.3580547e-02   1.1704436e-02   7.5149361e-03   1.4907027e-02   3.3697876e-02   3.9666792e-02   6.7342811e-02   4.0781127e-02   5.4526714e-02   1.0443448e-02   4.9110275e-02   2.9034049e-02   2.1496506e-02   8.1378186e-03   5.2679971e-02   5.7301105e-02   7.5032429e-02   2.8276353e-02   2.8921068e-02   5.8613532e-02   1.8254191e-04   7.1710602e-02   5.1825938e-02   0.0000000e+00   0.0000000e+00   0.0000000e+00   0.0000000e+00   0.0000000e+00
   3.8712131e-03   1.1075240e-02   1.4227176e-02   6.0424327e-02   2.6409448e-02   6.8089477e-02   4.2894941e-02   1.2601530e-02   8.0451484e-03   5.0125812e-02   5.3570151e-02   6.2015270e-04   4.9077134e-02   1.9660557e-02   6.3255008e-02   3.7580372e-02   7.5680992e-03   6.8098228e-02   5.9118748e-02   1.7589405e-02   6.6986815e-02   4.9199198e-02   3.9061867e-02   5.7196959e-02   5.2365473e-02   1.4931709e-02   4.6355814e-02   0.0000000e+00   0.0000000e+00   0.0000000e+00   0.0000000e+00   0.0000000e+00
   5.0182004e-02   6.6431766e-02   7.0265631e-02   6.0466529e-03   4.8537649e-02   5.2117441e-02   5.0701551e-02   5.0520780e-02   7.4385934e-02   4.3455664e-03   1.9759044e-02   2.1543351e-02   2.1927480e-02   4.0148190e-02   4.8199718e-02   5.5212339e-03   3.1233805e-02   3.7250542e-02   6.8154084e-02   5.0848624e-02   3.7315856e-02   3.1671235e-02   3.7428466e-03   4.1593818e-03   3.1830851e-02   5.1233620e-02   2.1925161e-02   0.0000000e+00   0.0000000e+00   0.0000000e+00   0.0000000e+00   0.0000000e+00
   1.9090734e-02   6.2236454e-02   5.2633420e-02   2.1800048e-03   4.3874899e-02   5.4865962e-02   2.5646754e-02   7.1932539e-02   5.4445670e-02   3.3760690e-02   1.6769919e-02   5.2519203e-02   7.5780013e-02   2.7063408e-02   1.4710509e-02   6.6787592e-02   1.2866023e-02   5.9410293e-02   6.9795657e-02   3.2583598e-03   4.7272512e-02   2.3961924e-02   3.8487720e-02   1.1408738e-02   1.0439276e-02   3.7404911e-02   1.1396815e-02   0.0000000e+00   0.0000000e+00   0.0000000e+00   0.0000000e+00   0.0000000e+00
   3.5042765e-02   6.4889226e-02   1.7955270e-02   4.8490103e-02   2.8252876e-02   2.9248129e-02   1.3451913e-02   4.4437273e-02   3.2621178e-02   5.8719791e-03   2.7741172e-02   6.4325793e-02   2.9937199e-02   6.0038469e-02   6.2716930e-02   1.8734351e-02   4.0974397e-03   2.6024781e-02   5.6842621e-02   3.3504430e-02   5.4032428e-02   4.9996009e-02   1.7186895e-03   3.7208554e-02   6.2863927e-02   1.8876695e-02   7.1079801e-02   0.0000000e+00   0.0000000e+00   0.0000000e+00   0.0000000e+00   0.0000000e+00
   3.8580374e-03   5.6067114e-02   1.9574461e-02   1.1950003e-02   1.0698707e-02   6.9401469e-02   6.3961552e-02   1.8201607e-02   1.0697480e-02   3.5967852e-02   5.5978290e-02   4.9933047e-02   6.9659443e-03   3.6651678e-02   6.8524891e-02   1.1922077e-02   5.3610349e-02   5.1202359e-03   5.2339548e-02   5.5822737e-02   6.9724966e-02   2.3469746e-02   3.0802076e-02   4.7227247e-02   3.2956360e-02   5.8611739e-02   3.9960786e-02   0.0000000e+00   0.0000000e+00   0.0000000e+00   0.0000000e+00   0.0000000e+00
   7.0044623e-02   6.9510584e-03   7.8739067e-03   4.0537503e-02   1.8903539e-02   7.5832917e-02   9.7013815e-03   4.8538536e-02   2.5945098e-02   4.7168552e-02   2.0239252e-02   6.1174113e-02   3.3525658e-03   1.5510102e-02   2.7078042e-02   3.9287314e-02   7.1741797e-02   6.8638061e-02   5.8686543e-02   4.7150226e-02   7.9339413e-02   7.9016570e-02   2.0197094e-02   1.4655009e-02   1.0825402e-03   2.4277437e-02   1.7076806e-02   0.0000000e+00   0.0000000e+00   0.0000000e+00   0.0000000e+00   0.0000000e+00
   4.6341284e-02   1.2591690e-02   5.2558015e-02   4.5366968e-02   2.4316324e-02   1.1288402e-02   7.5300003e-02   3.6845804e-02   4.1243837e-02   2.2684727e-02   6.0169213e-02   5.8236263e-02   3.0522815e-02   6.8016517e-02   1.9653605e-02   1.7897608e-02   6.1185174e-02   1.8690339e-02   4.6240309e-02   4.6924953e-02   3.5640212e-04   8.8607220e-03   6.2684619e-02   3.0140549e-02   7.2538997e-02   8.9660505e-03   2.0378809e-02   0.0000000e+00   0.0000000e+00   0.0000000e+00   0.0000000e+00   0.0000000e+00
   2.3030435e-02   2.1569216e-03   7.6730536e-02   2.5878411e-02   8.9727538e-03   3.5782911e-02   1.7040055e-02   7.1560320e-02   3.5564102e-02   7.1582206e-02   2.2977825e-02   5.1597683e-03   4.9271251e-02   4.5832936e-03   4.6861445e-02   2.5118569e-02   2.4491032e-02   4.6553483e-03   5.5977546e-02   6.1962052e-02   7.3370495e-02   7.5268607e-02   3.6205141e-02   7.5693488e-02   3.1099639e-02   3.1525181e-02   7.4806683e-03   0.0000000e+00   0.0000000e+00   0.0000000e+00   0.0000000e+00   0.0000000e+00
   6.0537304e-02   2.0225011e-02   3.5934269e-02   2.2469702e-02   2.1923989e-02   2.5562754e-02   5.7484335e-02   4.2391925e-02   5.5916755e-02   4.6179695e-02   3.2483384e-02   4.8831279e-02   6.9057818e-04   3.3717320e-02   4.5977667e-02   3.1225768e-02   5.4174405e-02   3.6700120e-03   1.8799866e-02   4.2298908e-02   1.5298992e-02   5.7833014e-02   5.5692059e-02   6.0366374e-02   5.4404591e-02   1.3346158e-02   4.2563885e-02   0.0000000e+00   0.0000000e+00   0.0000000e+00   0.0000000e+00   0.0000000e+00
   6.1489566e-03   1.4346466e-02   6.3830243e-02   6.8184790e-02   2.6170783e-02   6.5854363e-02   4.6893279e-02   4.2572782e-02   1.0681132e-02   4.6495293e-02   1.8499833e-02   1.1656960e-03   2.1057182e-02   4.4257208e-02   4.4106483e-02   5.9114965e-02   5.1320651e-02   4.9700084e-02   3.7877621e-02   5.1278436e-02   6.0891824e-03   9.6637071e-04   7.3125083e-03   5.3270947e-02   6.1176165e-02   3.5643507e-02   6.5985076e-02   0.0000000e+00   0.0000000e+00   0.0000000e+00   0.0000000e+00   0.0000000e+00
   3.8937974e-03   4.3787301e-02   5.2963551e-02   9.5919255e-03   2.3904415e-02   3.2691310e-02   1.8641211e-02   7.3081306e-02   4.2178887e-02   7.9872081e-02   5.1375295e-02   2.9016760e-02   2.8850234e-02   7.3101552e-02   2.2838699e-03   6.8396547e-02   5.0548395e-03   3.5482778e-02   7.6930574e-02   3.0051183e-02   7.4517409e-02   2.7909799e-03   7.7786388e-02   6.0606713e-03   1.7987319e-03   4.3177063e-02   1.2719339e-02   0.0000000e+00   0.0000000e+00   0.0000000e+00   0.0000000e+00   0.0000000e+00
   3.5582433e-02   1.9537320e-03   5.6005561e-02   5.1585286e-02   5.3991389e-02   4.6023010e-02   8.7067187e-03   4.6419406e-02   4.1786939e-02   5.1152411e-02   2.3960540e-02   3.8478556e-02   3.9647671e-02   4.3448557e-02   1.7040694e-02   3.2887887e-03   3.8447064e-02   4.0221904e-02   4.0642265e-02   5.1579174e-02   5.1796927e-02   3.0613849e-02   2.1518111e-02   2.4370409e-02   5.0347713e-02   5.2946106e-02   3.8444785e-02   0.0000000e+00   0.0000000e+00   0.0000000e+00   0.0000000e+00   0.0000000e+00
   6.4426385e-02   1.0481425e-02   4.2397661e-02   5.6177682e-02   6.5395241e-02   1.7888213e-04   4.7725649e-02   3.9848336e-02   4.8388250e-02   6.1759785e-02   2.1184052e-02   3.8754179e-02   2.2403803e-02   2.4878316e-02   8.0454619e-03   9.5556566e-03   4.8292567e-03   5.5900825e-02   5.1304854e-02   6.4642019e-02   1.7306422e-02   4.9070017e-02   1.0744208e-02   1.1835903e-02   5.7894080e-02   6.2875263e-02   5.1996385e-02   0.0000000e+00   0.0000000e+00   0.0000000e+00   0.0000000e+00   0.0000000e+00
   1.0445536e-02   4.9930569e-02   6.6214085e-02   1.0052378e-02   7.5640770e-02   4.3092747e-02   8.1291678e-03   1.5301811e-02   6.6706082e-02   5.8927990e-02   2.4847003e-02   6.5618310e-02   1.0486414e-02   7.0022516e-02   1.1881538e-02   2.1238772e-02   8.0203187e-03   3.1174504e-02   4.7673974e-02   9.3300566e-04   6.1652323e-02   5.7337344e-02   1.2232734e-03   2.1499706e-02   8.8629784e-03   7.8572713e-02   7.4514170e-02   0.0000000e+00   0.0000000e+00   0.0000000e+00   0.0000000e+00   0.0000000e+00
   2.5318457e-02   3.9484224e-02   5.9945475e-02   1.0371165e-02   1.8124025e-02   4.8494968e-02   3.8208507e-02   6.3516187e-02   4.7176664e-02   5.6782256e-03   3.1583956e-02   5.4618523e-03   3.6336578e-02   3.3645350e-02   4.9961134e-02   6.0639672e-02   3.5192250e-02   3.6322624e-02   6.5638879e-02   3.7175224e-02   2.7157198e-02   3.7243417e-02   2.4973784e-02   2.8407629e-02   6.5390739e-02   3.3842451e-02   3.4709366e-02   0.0000000e+00   0.0000000e+00   0.0000000e+00   0.0000000e+00   0.0000000e+00
   2.1530955e-02   4.2512533e-02   7.5275992e-02   5.9189117e-02   5.4966124e-03   1.7482062e-02   4.1399675e-02   5.1908547e-02   4.2645911e-02   2.0014639e-02   6.4700272e-02   5.9705639e-03   7.1142289e-02   1.0376651e-02   3.6278877e-02   1.9545298e-02   5.7579650e-02   5.8764262e-02   2.4157999e-03   5.5775347e-02   5.4134150e-02   2.5575179e-02   3.3825622e-02   1.8300290e-02   3.2625205e-02   4.5352200e-02   3.0182303e-02   0.0000000e+00   0.0000000e+00   0.0000000e+00   0.0000000e+00   0.0000000e+00
   1.0610911e-02   7.8578566e-02   2.5522923e-02   1.4523526e-02   2.7643479e-02   2.3727774e-02   1.8007079e-02   5.7037220e-02   1.0809509e-02   2.8604664e-02   3.6922849e-02   4.1037113e-02   2.3234105e-02   3.7884962e-02   4.3853624e-02   3.0635990e-02   2.3355860e-02   3.2843316e-02   4.3433228e-02   7.6340004e-02   1.9246946e-04   4.7569839e-02   3.5053314e-02   1.4057912e-02   7.5369617e-02   8.1365240e-02   6.1784905e-02   0.0000000e+00   0.0000000e+00   0.0000000e+00   0.0000000e+00   0.0000000e+00
   2.5918372e-02   4.2363362e-02   4.0586161e-02   4.0043598e-02   5.9384752e-02   5.3957991e-02   4.4786808e-02   5.3998661e-02   2.9918019e-02   6.0203943e-02   6.4310832e-02   1.1746741e-02   3.5427922e-02   7.7445389e-03   1.9417300e-02   2.0721603e-02   6.6132247e-02   5.1417650e-02   1.7981165e-02   2.2882717e-03   5.6434225e-02   6.0256358e-02   1.1497537e-03   2.9187152e-02   3.5977090e-02   3.8204287e-02   3.0441196e-02   0.0000000e+00   0.0000000e+00   0.0000000e+00   0.0000000e+00   0.0000000e+00
   2.3585345e-02   4.5191795e-02   2.0651503e-02   3.4592444e-02   6.1145909e-04   6.7353128e-02   3.4049311e-02   2.8591714e-02   3.7019601e-02   5.4138632e-02   3.3770590e-02   6.6531313e-03   5.9853122e-02   2.1663454e-02   6.3284113e-02   3.2055418e-02   4.3635756e-02   3.5189113e-02   1.4532533e-02   6.8909093e-02   5.9617809e-02   6.7033699e-02   2.3159567e-02   1.6946347e-02   1.8716199e-02   4.6239453e-02   4.2955670e-02   0.0000000e+00   0.0000000e+00   0.0000000e+00   0.0000000e+00   0.0000000e+00
   7.5533578e-02   4.2380689e-03   6.4557768e-03   6.8973336e-02   1.3024106e-02   7.1732740e-02   4.3340263e-02   2.2082967e-02   6.1767569e-02   2.3060133e-02   6.1152280e-03   1.8760247e-02   2.6916901e-02   3.5808347e-02   1.4008732e-02   1.1243348e-02   8.2845127e-02   7.7971760e-02   1.5367281e-02   5.1091717e-02   2.4235607e-02   2.6854733e-02   2.3887810e-02   8.3734214e-02   6.9106120e-02   1.3258647e-02   2.8585643e-02   0.0000000e+00   0.0000000e+00   0.0000000e+00   0.0000000e+00   0.0000000e+00
   7.6780535e-02   2.1844944e-02   1.4059638e-02   7.4336278e-02   2.7925587e-02   6.3752699e-02   4.5280681e-02   3.1800054e-02   5.1054899e-02   1.2412787e-02   1.8503363e-02   5.3472702e-02   1.4118607e-03   6.7844608e-03   2.2194902e-03   7.5223468e-02   2.3099968e-02   2.6628320e-02   1.7805696e-02   1.3594948e-02   8.2041658e-02   2.5592448e-02   8.3950761e-02   3.6545205e-02   5.8167895e-02   2.9725467e-02   2.5984189e-02   0.0000000e+00   0.0000000e+00   0.0000000e+00   0.0000000e+00   0.0000000e+00
   4.3973961e-02   2.5257668e-02   2.2949032e-02   3.9475698e-02   9.3521192e-03   6.9601159e-02   5.4558335e-02   6.8965188e-02   1.5920924e-02   5.3521820e-02   3.9280218e-02   6.2535226e-03   5.2520865e-02   2.7545957e-02   4.2255893e-02   1.4674402e-02   5.9565382e-02   5.0307231e-02   2.0857960e-02   2.1781936e-02   2.1278748e-02   4.7068753e-02   5.0623390e-02   2.5332195e-02   1.4356416e-02   5.1194694e-02   5.1526532e-02   0.0000000e+00   0.0000000e+00   0.0000000e+00   0.0000000e+00   0.0000000e+00
   4.3628039e-02   5.8153722e-02   4.3628513e-02   6.8727522e-02   3.2406502e-03   5.3199354e-02   2.8653980e-02   1.9380004e-02   3.7632895e-02   6.3594908e-02   7.4838029e-02   6.0151478e-03   2.2505711e-02   6.0445295e-02   5.1240600e-02   6.2500923e-02   3.5702114e-02   1.0527858e-02   2.9834645e-02   1.9590413e-02   1.1250490e-02   2.4333714e-02   1.8170394e-02   7.8320908e-02   2.9734150e-02   4.4575676e-02   5.7434645e-04   0.0000000e+00   0.0000000e+00   0.0000000e+00   0.0000000e+00   0.0000000e+00
   1.9127410e-02   4.2714028e-02   1.4372379e-02   1.7893424e-02   7.2983997e-02   1.6364597e-02   5.7875262e-02   3.1771970e-02   3.5257398e-03   2.1357828e-02   4.9755967e-02   7.6037945e-02   7.5074723e-02   7.5628788e-02   3.9556477e-02   6.8989884e-02   5.0492560e-03   2.7773416e-02   5.1312506e-02   3.8261797e-03   5.6389764e-02   5.1332339e-02   2.5395055e-02   2.6366229e-02   5.2882174e-03   1.1789896e-02   5.2446723e-02   0.0000000e+00   0.0000000e+00   0.0000000e+00   0.0000000e+00   0.0000000e+00
   1.6893784e-02   5.0534960e-02   3.9587979e-02   5.7650171e-02   6.8719697e-02   1.0295111e-02   1.1203921e-02   1.8855102e-03   5.7931742e-02   5.6969389e-02   5.7946753e-02   3.6182810e-02   4.1198889e-04   6.6848969e-02   7.0732979e-02   3.6179596e-04   5.3960193e-03   3.7149773e-02   2.7061690e-02   1.4143884e-02   1.4761450e-02   3.9901492e-02   6.9717813e-02   6.3545252e-02   7.0321471e-02   3.9278613e-02   1.4564984e-02   0.0000000e+00   0.0000000e+00   0.0000000e+00   0.0000000e+00   0.0000000e+00
   0.0000000e+00   0.0000000e+00   0.0000000e+00   0.0000000e+00   0.0000000e+00   0.0000000e+00   0.0000000e+00   0.0000000e+00   0.0000000e+00   0.0000000e+00   0.0000000e+00   0.0000000e+00   0.0000000e+00   0.0000000e+00   0.0000000e+00   0.0000000e+00   0.0000000e+00   0.0000000e+00   0.0000000e+00   0.0000000e+00   0.0000000e+00   0.0000000e+00   0.0000000e+00   0.0000000e+00   0.0000000e+00   0.0000000e+00   0.0000000e+00   0.0000000e+00   0.0000000e+00   0.0000000e+00   0.0000000e+00   0.0000000e+00
   0.0000000e+00   0.0000000e+00   0.0000000e+00   0.0000000e+00   0.0000000e+00   0.0000000e+00   0.0000000e+00   0.0000000e+00   0.0000000e+00   0.0000000e+00   0.0000000e+00   0.0000000e+00   0.0000000e+00   0.0000000e+00   0.0000000e+00   0.0000000e+00   0.0000000e+00   0.0000000e+00   0.0000000e+00   0.0000000e+00   0.0000000e+00   0.0000000e+00   0.0000000e+00   0.0000000e+00   0.0000000e+00   0.0000000e+00   0.0000000e+00   0.0000000e+00   0.0000000e+00   0.0000000e+00   0.0000000e+00   0.0000000e+00
   0.0000000e+00   0.0000000e+00   0.0000000e+00   0.0000000e+00   0.0000000e+00   0.0000000e+00   0.0000000e+00   0.0000000e+00   0.0000000e+00   0.0000000e+00   0.0000000e+00   0.0000000e+00   0.0000000e+00   0.0000000e+00   0.0000000e+00   0.0000000e+00   0.0000000e+00   0.0000000e+00   0.0000000e+00   0.0000000e+00   0.0000000e+00   0.0000000e+00   0.0000000e+00   0.0000000e+00   0.0000000e+00   0.0000000e+00   0.0000000e+00   0.0000000e+00   0.0000000e+00   0.0000000e+00   0.0000000e+00   0.0000000e+00
   0.0000000e+00   0.0000000e+00   0.0000000e+00   0.0000000e+00   0.0000000e+00   0.0000000e+00   0.0000000e+00   0.0000000e+00   0.0000000e+00   0.0000000e+00   0.0000000e+00   0.0000000e+00   0.0000000e+00   0.0000000e+00   0.0000000e+00   0.0000000e+00   0.0000000e+00   0.0000000e+00   0.0000000e+00   0.0000000e+00   0.0000000e+00   0.0000000e+00   0.0000000e+00   0.0000000e+00   0.0000000e+00   0.0000000e+00   0.0000000e+00   0.0000000e+00   0.0000000e+00   0.0000000e+00   0.0000000e+00   0.0000000e+00
   0.0000000e+00   0.0000000e+00   0.0000000e+00   0.0000000e+00   0.0000000e+00   0.0000000e+00   0.0000000e+00   0.0000000e+00   0.0000000e+00   0.0000000e+00   0.0000000e+00   0.0000000e+00   0.0000000e+00   0.0000000e+00   0.0000000e+00   0.0000000e+00   0.0000000e+00   0.0000000e+00   0.0000000e+00   0.0000000e+00   0.0000000e+00   0.0000000e+00   0.0000000e+00   0.0000000e+00   0.0000000e+00   0.0000000e+00   0.0000000e+00   0.0000000e+00   0.0000000e+00   0.0000000e+00   0.0000000e+00   0.0000000e+00
